[gd_scene load_steps=5 format=2]

[ext_resource path="res://Scripts/Scenario/RollingBolder.gd" type="Script" id=1]
[ext_resource path="res://Assets/Scenario/RollingBolder.png" type="Texture" id=2]

[sub_resource type="CircleShape2D" id=1]
radius = 23.0

[sub_resource type="RectangleShape2D" id=2]
extents = Vector2( 35, 149 )

[node name="RollingBolder" type="KinematicBody2D"]
z_index = 1
collision_layer = 4
script = ExtResource( 1 )

[node name="Sprite" type="Sprite" parent="."]
texture = ExtResource( 2 )

[node name="CollisionShape2D" type="CollisionShape2D" parent="."]
shape = SubResource( 1 )

[node name="Trigger" type="Area2D" parent="."]

[node name="CollisionShape2D" type="CollisionShape2D" parent="Trigger"]
shape = SubResource( 2 )
[connection signal="body_exited" from="Trigger" to="." method="_on_Trigger_body_exited"]
